2.07348,0.0

2.078315,0.5

2.081538,1.0

2.084762,1.5

2.089597,2.0

2.09282,2.5

2.095238,3.0

2.100879,3.5

2.104103,4.0

2.107326,4.5

2.111355,5.0

2.11619,5.5

2.118608,6.0

2.123443,6.5

2.126667,7.0

2.130696,7.5

2.134725,8.0

2.137949,8.5

2.144396,9.0

2.146813,9.5

2.149231,10.0

2.155678,10.5

2.158901,11.0

2.160513,11.5

2.165348,12.0

2.169377,12.5

2.172601,13.0

2.175824,13.5

2.181465,14.0

2.183883,14.5

2.187912,15.0

2.191136,15.5

2.195165,16.0

2.197582,16.5

2.201612,17.0

2.204029,17.5

2.208864,18.0

2.212088,18.5

2.216117,19.0

2.218535,19.5

2.222564,20.0

2.225787,20.5

2.229817,21.0

2.23304,21.5

2.236264,22.0

2.239487,22.5

2.243516,23.0

2.245934,23.5

2.249963,24.0

2.252381,24.5

2.255605,25.0

2.259634,25.5

2.263663,26.0

2.265275,26.5

2.268498,27.0

2.268498,27.5

2.276557,28.0

2.278974,28.5

2.281392,29.0

2.285421,29.5

2.287839,30.0

2.292674,30.5

2.295091,31.0

2.299121,31.5

2.302344,32.0

2.305568,32.5

2.307179,33.0

2.311209,33.5

2.315238,34.0

2.317656,34.5

2.320879,35.0

2.322491,35.5

2.328132,36.0

2.329744,36.5

2.332967,37.0

2.33619,37.5

2.339414,38.0

2.342637,38.5

2.345861,39.0

2.349084,39.5

2.351502,40.0

2.354725,40.5

2.357949,41.0

2.360366,41.5

2.36359,42.0

2.366813,42.5

2.370037,43.0

2.371648,43.5

2.374872,44.0

2.378095,44.5

2.382124,45.0

2.383736,45.5

2.383736,46.0

2.390183,46.5

2.393407,47.0

2.395824,47.5

2.399048,48.0

2.401465,48.5

2.4063,49.0

2.407106,49.5

2.41033,50.0

2.412747,50.5

2.415971,51.0

2.418388,51.5

2.421612,52.0

2.423223,52.5

2.427253,53.0

2.428864,53.5

2.432088,54.0

2.4337,54.5

2.436117,55.0

2.440953,55.5

2.44337,56.0

2.444982,56.5

2.447399,57.0

2.450623,57.5

2.453846,58.0

2.456264,58.5

2.459487,59.0

2.461905,59.5

2.465128,60.0

2.46674,60.5

2.469963,61.0

2.472381,61.5

2.474798,62.0

2.478022,62.5

2.481246,63.0

2.482857,63.5

2.486081,64.0

2.487692,64.5

2.490916,65.0

2.492527,65.5

2.494945,66.0

2.498168,66.5

2.500586,67.0

2.498974,67.5

2.505421,68.0

2.507839,68.5

2.511868,69.0

2.51348,69.5

2.515897,70.0

2.517509,70.5

2.521538,71.0

2.52315,71.5

2.525568,72.0

2.527985,72.5

2.53282,73.0

2.532015,73.5

2.535238,74.0

2.537656,74.5

2.539267,75.0

2.541685,75.5

2.545714,76.0

2.54652,76.5

2.549744,77.0

2.552161,77.5

2.554579,78.0

2.555385,78.5

2.558608,79.0

2.561831,79.5

2.563443,80.0

2.565055,80.5

2.567472,81.0

2.56989,81.50001

2.572308,82.0

2.574725,82.5

2.577143,83.0

2.577949,83.5

2.581978,84.00001

2.582784,84.5

2.586813,85.0

2.588425,85.5

2.590842,86.0

2.59326,86.50001

2.595678,87.0

2.597289,87.5

2.600513,88.0

2.601319,88.5

2.60696,89.00001

2.606154,89.5

2.608571,90.0

2.610183,90.5

2.612601,91.0

2.615018,91.50001

2.61663,92.0

2.619048,92.5

2.620659,93.0

2.623077,93.5

2.625494,94.00001

2.627912,94.5

2.628718,95.0

2.631135,95.5

2.633553,96.0

2.635971,96.50001

2.637582,97.0

2.638388,97.5

2.641612,98.0

2.642418,98.5

2.645641,99.00001

2.647253,99.5

2.648864,100.0

2.652088,100.5

2.652894,101.0

2.655311,101.5

2.657729,102.0

2.659341,102.5

2.661758,103.0

2.66337,103.5

2.665787,104.0

2.668205,104.5

2.676264,105.0

2.671429,105.5

2.673846,106.0

2.675458,106.5

2.677069,107.0

2.679487,107.5

2.680293,108.0

2.682711,108.5

2.684322,109.0

2.685934,109.5

2.688352,110.0

2.690769,110.5

2.691575,111.0

2.693993,111.5

2.69641,112.0

2.698022,112.5

2.700439,113.0

2.701245,113.5

2.703663,114.0

2.705275,114.5

2.707692,115.0

2.708498,115.5

2.709304,116.0

2.712528,116.5

2.714139,117.0

2.715751,117.5

2.718168,118.0

2.71978,118.5

2.721392,119.0

2.723809,119.5

2.725421,120.0

2.726227,120.5

2.737509,121.0

2.731062,121.5

2.732674,122.0

2.734286,122.5

2.735898,123.0

2.737509,123.5

2.739121,124.0

2.739927,124.5

2.742344,125.0

2.743956,125.5

2.745568,126.0

2.747985,126.5

2.749597,127.0

2.750403,127.5

2.75282,128.0

2.753626,128.5

2.755238,129.0

2.757656,129.5

2.759267,130.0

2.760879,130.5

2.762491,131.0

2.764908,131.5

2.765714,132.0

2.767326,132.5

2.768938,133.0

2.769743,133.5

2.771355,134.0

2.774579,134.5

2.774579,135.0

2.776996,135.5

2.778608,136.0

2.779414,136.5

2.781026,137.0

2.782637,137.5

2.784249,138.0

2.785861,138.5

2.787472,139.0

2.788278,139.5

2.791502,140.0

2.792308,140.5

2.794725,141.0

2.796337,141.5

2.797143,142.0

2.797143,142.5

2.800366,143.0

2.801172,143.5

2.802784,144.0

2.805202,144.5

2.806813,145.0

2.808425,145.5

2.809231,146.0

2.810842,146.5

2.812454,147.0

2.814066,147.5

2.816483,148.0

2.815678,148.5

2.818901,149.0

2.819707,149.5

2.821319,150.0

2.822124,150.5

2.82293,151.0

2.825348,151.5

2.82696,152.0

2.827766,152.5

2.829377,153.0

2.831795,153.5

2.832601,154.0

2.832601,154.5

2.835824,155.0

2.835824,155.5

2.837436,156.0

2.839047,156.5

2.840659,157.0

2.841465,157.5

2.843883,158.0

2.844689,158.5

2.845494,159.0

2.847912,159.5

2.848718,160.0

2.848718,160.5

2.851941,161.0

2.851941,161.5

2.854359,162.0

2.855165,162.5

2.856776,163.0

2.857582,163.5

2.89304,164.0

2.86,164.5

2.861612,165.0

2.864029,165.5

2.864835,166.0

2.865641,166.5

2.868059,167.0

2.868059,167.5

2.870476,168.0

2.871282,168.5

2.871282,169.0

2.872088,169.5

2.874505,170.0

2.874505,170.5

2.877729,171.0

2.877729,171.5

2.880147,172.0

2.880952,172.5

2.881758,173.0

2.88337,173.5

2.885787,174.0

2.885787,174.5

2.887399,175.0

2.887399,175.5

2.890623,176.0

2.890623,176.5

2.892235,177.0

2.892235,177.5

2.895458,178.0

2.896264,178.5

2.89707,179.0

2.897875,179.5

2.900293,180.0

2.900293,180.5

2.900293,181.0

2.903516,181.5

2.903516,182.0

2.903516,182.5

2.90674,183.0

2.907546,183.5

2.908352,184.0

2.909963,184.5

2.911575,185.0

2.911575,185.5

2.912381,186.0

2.913993,186.5

2.914799,187.0

2.91641,187.5

2.917216,188.0

2.918828,188.5

2.919634,189.0

2.92044,189.5

2.922051,190.0

2.922857,190.5

2.924469,191.0

2.926081,191.5

2.926081,192.0

2.927692,192.5

2.929304,193.0

2.929304,193.5

2.932528,194.0

2.931721,194.5

2.934139,195.0

2.933333,195.5

2.935751,196.0

2.937363,196.5

2.938169,197.0

2.938169,197.5

2.938974,198.0

2.93978,198.5

2.942198,199.0

2.942198,199.5

2.943809,200.0

2.943809,200.5

2.945421,201.0

2.946227,201.5

2.947033,202.0

2.947839,202.5

2.950256,203.0

2.951062,203.5

2.951868,204.0

2.951868,204.5

2.954286,205.0

2.95348,205.5

2.955091,206.0

2.956703,206.5

2.956703,207.0

2.957509,207.5

2.959121,208.0

2.959121,208.5

2.961539,209.0

2.961539,209.5

2.963956,210.0

2.964762,210.5

2.964762,211.0

2.965568,211.5

2.967985,212.0

2.968791,212.5

2.969597,213.0

2.970403,213.5

2.970403,214.0

2.971209,214.5

2.973626,215.0

2.973626,215.5

2.974432,216.0

2.974432,216.5

2.97685,217.0

2.977656,217.5

2.977656,218.0

2.977656,218.5

2.980879,219.0

2.980073,219.5

2.982491,220.0

2.982491,220.5

2.977656,221.0

2.984102,221.5

2.985714,222.0

2.98652,222.5

2.988132,223.0

2.98652,223.5

2.988938,224.0

2.989743,224.5

2.990549,225.0

2.992161,225.5

2.992967,226.0

2.993773,226.5

2.994579,227.0

2.994579,227.5

2.99619,228.0

2.996996,228.5

3.00022,229.0

2.998608,229.5

3.00022,230.0

3.00022,230.5

3.001026,231.0

3.001832,231.5

3.002637,232.0

3.003443,232.5

3.003443,233.0

3.003443,233.5

3.005861,234.0

3.006667,234.5

3.007473,235.0

3.008278,235.5

3.00989,236.0

3.010696,236.5

3.010696,237.0

3.011502,237.5

3.012308,238.0

3.013113,238.5

3.015531,239.0

3.015531,239.5

3.016337,240.0

3.016337,240.5

3.017143,241.0

3.017949,241.5

3.01956,242.0

3.01956,242.5

3.021172,243.0

3.020366,243.5

3.021978,244.0

3.021978,244.5

3.035678,245.0

3.024395,245.5

3.025202,246.0

3.025202,246.5

3.026813,247.0

3.027619,247.5

3.026007,248.0

3.029231,248.5

3.029231,249.0

3.029231,249.5

3.029231,250.0

3.034066,250.5

3.032454,251.0

3.03326,251.5

3.034872,252.0

3.034872,252.5

3.035678,253.0

3.035678,253.5

3.036483,254.0

3.037289,254.5

3.038901,255.0

3.038901,255.5

3.038901,256.0

3.040513,256.5

3.042125,257.0

3.042125,257.5

3.042125,258.0

3.04293,258.5

3.043736,259.0

3.043736,259.5

3.045348,260.0

3.04696,260.5

3.04696,261.0

3.04696,261.5

3.047765,262.0

3.048571,262.5

3.049377,263.0

3.050183,263.5

3.050989,264.0

3.051795,264.5

3.051795,265.0

3.051795,265.5

3.055018,266.0

3.055018,266.5

3.055018,267.0

3.055018,267.5

3.055018,268.0

3.055018,268.5

3.058242,269.0

3.069524,269.5

3.058242,270.0

3.058242,270.5

3.060659,271.0

3.061465,271.5

3.063883,272.0

3.061465,272.5

3.063883,273.0

3.063883,273.5

3.064688,274.0

3.064688,274.5

3.065495,275.0

3.065495,275.5

3.067106,276.0

3.067912,276.5

3.067912,277.0

3.071136,277.5

3.069524,278.0

3.07033,278.5

3.07033,279.0

3.071136,279.5

3.071136,280.0

3.071136,280.5

3.073553,281.0

3.072747,281.5

3.073553,282.0

3.074359,282.5

3.075165,283.0

3.075165,283.5

3.076777,284.0

3.076777,284.5

3.077582,285.0

3.077582,285.5

3.079194,286.0

3.079194,286.5

3.08,287.0

3.08,287.5

3.080806,288.0

3.08,288.5

3.080806,289.0

3.080806,289.5

3.084029,290.0

3.084029,290.5

3.084029,291.0

3.084029,291.5

3.085641,292.0

3.085641,292.5

3.086447,293.0

3.075971,293.5

3.087253,294.0

3.088058,294.5

3.088864,295.0

3.088864,295.5

3.08967,296.0

3.088864,296.5

3.091282,297.0

3.091282,297.5

3.092088,298.0

3.092088,298.5

3.0937,299.0

3.092894,299.5

3.0937,300.0

3.0937,300.5

3.095311,301.0

3.096117,301.5

3.096117,302.0

3.096923,302.5

3.097729,303.0

3.098535,303.5

3.098535,304.0

3.097729,304.5

3.099341,305.0

3.099341,305.5

3.100147,306.0

3.100147,306.5

3.102564,307.0

3.100952,307.5

3.10337,308.0

3.101758,308.5

3.104176,309.0

3.104982,309.5

3.104176,310.0

3.104982,310.5

3.105788,311.0

3.105788,311.5

3.106593,312.0

3.106593,312.5

3.106593,313.0

3.106593,313.5

3.106593,314.0

3.106593,314.5

3.109817,315.0

3.109817,315.5

3.111428,316.0

3.110623,316.5

3.111428,317.0

3.112234,317.5

3.11304,318.0

3.11304,318.5

3.11304,319.0

3.11304,319.5

3.11304,320.0

3.108205,320.5

3.115458,321.0

3.114652,321.5

3.117069,322.0

3.116264,322.5

3.117069,323.0

3.117876,323.5

3.118681,324.0

3.117876,324.5

3.118681,325.0

3.119487,325.5

3.118681,326.0

3.119487,326.5

3.121099,327.0

3.121905,327.5

3.121905,328.0

3.121099,328.5

3.122711,329.0

3.122711,329.5

3.123516,330.0

3.124322,330.5

3.119487,331.0

3.123516,331.5

3.125128,332.0

3.125934,332.5

3.12674,333.0

3.125934,333.5

3.127546,334.0

3.128351,334.5

3.128351,335.0

3.127546,335.5

3.129157,336.0

3.130769,336.5

3.129963,337.0

3.129157,337.5

3.129963,338.0

3.130769,338.5

3.131575,339.0

3.131575,339.5

3.132381,340.0

3.131575,340.5

3.132381,341.0

3.132381,341.5

3.132381,342.0

3.133993,342.5

3.134799,343.0

3.134799,343.5

3.135604,344.0

3.135604,344.5

3.135604,345.0

3.135604,345.5

3.13641,346.0

3.13641,346.5

3.138022,347.0

3.137216,347.5

3.138022,348.0

3.138828,348.5

3.138828,349.0

3.139634,349.5

3.14044,350.0

3.14044,350.5

3.14044,351.0

3.14044,351.5

3.141245,352.0

3.142051,352.5

3.142051,353.0

3.142051,353.5

3.143663,354.0

3.142857,354.5

3.143663,355.0

3.143663,355.5

3.144469,356.0

3.144469,356.5

3.144469,357.0

3.145275,357.5

3.139634,358.0

3.145275,358.5

3.145275,359.0

3.146886,359.5

3.146886,360.0

3.146886,360.5

3.147692,361.0

3.148498,361.5

3.148498,362.0

3.148498,362.5

3.15011,363.0

3.144469,363.5

3.15011,364.0

3.15011,364.5

3.150916,365.0

3.150916,365.5

3.150916,366.0

3.150916,366.5

3.152527,367.0

3.151721,367.5

3.152527,368.0

3.151721,368.5

3.154139,369.0

3.153333,369.5

3.154139,370.0

3.153333,370.5

3.154945,371.0

3.154945,371.5

3.155751,372.0

3.154945,372.5

3.157362,373.0

3.156557,373.5

3.156557,374.0

3.156557,374.5

3.158169,375.0

3.158169,375.5

3.157362,376.0

3.158169,376.5

3.158169,377.0

3.158169,377.5

3.158169,378.0

3.158169,378.5

3.158169,379.0

3.158169,379.5

3.158169,380.0

3.160586,380.5

3.161392,381.0

3.161392,381.5

3.161392,382.0

3.161392,382.5

3.162198,383.0

3.161392,383.5

3.162198,384.0

3.163004,384.5

3.16381,385.0

3.16381,385.5

3.16381,386.0

3.164615,386.5

3.164615,387.0

3.165421,387.5

3.164615,388.0

3.165421,388.5

3.166227,389.0

3.166227,389.5

3.166227,390.0

3.171062,390.5

3.166227,391.0

3.167033,391.5

3.167033,392.0

3.167839,392.5

3.167839,393.0

3.167839,393.5

3.169451,394.0

3.169451,394.5

3.169451,395.0

3.169451,395.5

3.170256,396.0

3.170256,396.5

3.170256,397.0

3.170256,397.5

3.171062,398.0

3.171062,398.5

3.171062,399.0

3.171062,399.5

3.172674,400.0

3.172674,400.5

3.171868,401.0

3.172674,401.5

3.17348,402.0

3.17348,402.5

3.17348,403.0

3.174286,403.5

3.174286,404.0

3.174286,404.5

3.174286,405.0

3.174286,405.5

3.175092,406.0

3.18315,406.5

3.175897,407.0

3.175897,407.5

3.176703,408.0

3.175897,408.5

3.177509,409.0

3.177509,409.5

3.177509,410.0

3.177509,410.5

3.177509,411.0

3.178315,411.5

3.177509,412.0

3.178315,412.5

3.177509,413.0

3.178315,413.5

3.180732,414.0

3.179121,414.5

3.179927,415.0

3.179121,415.5

3.179927,416.0

3.179927,416.5

3.180732,417.0

3.18315,417.5

3.180732,418.0

3.180732,418.5

3.182344,419.0

3.180732,419.5

3.182344,420.0

3.182344,420.5

3.18315,421.0

3.181538,421.5

3.18315,422.0

3.18315,422.5

3.183956,423.0

3.183956,423.5

3.183956,424.0

3.183956,424.5

3.183956,425.0

3.183956,425.5

3.183956,426.0

3.183956,426.5

3.183956,427.0

3.183956,427.5

3.186374,428.0

3.183956,428.5

3.18718,429.0

3.186374,429.5

3.18718,430.0

3.187985,430.5

3.18718,431.0

3.18718,431.5

3.187985,432.0

3.18718,432.5

3.187985,433.0

3.190403,433.5

3.187985,434.0

3.187985,434.5

3.188791,435.0

3.189597,435.5

3.190403,436.0

3.188791,436.5

3.189597,437.0

3.190403,437.5

3.190403,438.0

3.190403,438.5

3.188791,439.0

3.191209,439.5

3.191209,440.0

3.190403,440.5

3.192015,441.0

3.192015,441.5

3.19282,442.0

3.192015,442.5

3.19282,443.0

3.192015,443.5

3.19282,444.0

3.191209,444.5

3.19282,445.0

3.193626,445.5

3.193626,446.0

3.193626,446.5

3.193626,447.0

3.193626,447.5

3.194432,448.0

3.194432,448.5

3.195238,449.0

3.194432,449.5

3.194432,450.0

3.195238,450.5

3.196044,451.0

3.195238,451.5

3.19685,452.0

3.195238,452.5

3.19685,453.0

3.19685,453.5

3.19685,454.0

3.19685,454.5

3.19685,455.0

3.19685,455.5

3.19685,456.0

3.19685,456.5

3.19685,457.0

3.19685,457.5

3.19685,458.0

3.19685,458.5

3.19685,459.0

3.197655,459.5

3.199267,460.0

3.198462,460.5

3.199267,461.0

3.199267,461.5

3.199267,462.0

3.199267,462.5

3.200073,463.0

3.200073,463.5

3.200879,464.0

3.200879,464.5

3.200879,465.0

3.200879,465.5

3.199267,466.0

3.200879,466.5

3.200879,467.0

3.201685,467.5

3.201685,468.0

3.200879,468.5

3.203297,469.0

3.201685,469.5

3.202491,470.0

3.201685,470.5

3.202491,471.0

3.19685,471.5

3.203297,472.0

3.202491,472.5

3.203297,473.0

3.203297,473.5

3.204103,474.0

3.203297,474.5

3.203297,475.0

3.204103,475.5

3.204908,476.0

3.203297,476.5

3.204103,477.0

3.204908,477.5

3.205714,478.0

3.204908,478.5

3.205714,479.0

3.204908,479.5

3.205714,480.0

3.204908,480.5

3.205714,481.0

3.205714,481.5

3.20652,482.0

3.20652,482.5

3.207326,483.0

3.20652,483.5

3.20652,484.0

3.207326,484.5

3.208132,485.0

3.20652,485.5

3.208132,486.0

3.207326,486.5

3.207326,487.0

3.20652,487.5

3.207326,488.0

3.207326,488.5

3.208938,489.0

3.208132,489.5

3.209743,490.0

3.209743,490.5

3.208938,491.0

3.208938,491.5

3.209743,492.0

3.209743,492.5

3.203297,493.0

3.208938,493.5

3.209743,494.0

3.209743,494.5

3.209743,495.0

3.209743,495.5

3.209743,496.0

3.209743,496.5

3.209743,497.0

3.209743,497.5

3.209743,498.0

3.212967,498.5

3.209743,499.0

3.211355,499.5

3.212161,500.0

3.212161,500.5

3.209743,501.0

3.209743,501.5

3.212967,502.0

3.212161,502.5

3.212161,503.0

3.212161,503.5

3.214579,504.0

3.212967,504.5

3.213773,505.0

3.212967,505.5

3.212967,506.0

3.212967,506.5

3.212967,507.0

3.213773,507.5

3.212967,508.0

3.212967,508.5

3.214579,509.0

3.212967,509.5

3.213773,510.0

3.214579,510.5

3.214579,511.0

3.215385,511.5

3.215385,512.0

3.214579,512.5

3.214579,513.0

3.214579,513.5

3.215385,514.0

3.21619,514.5

3.21619,515.0

3.215385,515.5

3.21619,516.0

3.21619,516.5

3.21619,517.0

3.21619,517.5

3.21619,518.0

3.215385,518.5

3.21619,519.0

3.216996,519.5

3.22022,520.0

3.216996,520.5

3.21619,521.0

3.21619,521.5

3.217802,522.0

3.217802,522.5

3.222637,523.0

3.217802,523.5

3.218608,524.0

3.217802,524.5

3.217802,525.0

3.216996,525.5

3.218608,526.0

3.217802,526.5

3.219414,527.0

3.218608,527.5

3.218608,528.0

3.219414,528.5

3.219414,529.0

3.218608,529.5

3.219414,530.0

3.219414,530.5

3.22022,531.0

3.219414,531.5

3.219414,532.0

3.22022,532.5

3.219414,533.0

3.219414,533.5

3.22022,534.0

3.219414,534.5

3.22022,535.0

3.22022,535.5

3.22022,536.0

3.219414,536.5

3.221025,537.0

3.221025,537.5

3.221025,538.0

3.221025,538.4999

3.221831,539.0

3.221831,539.5

3.221025,540.0

3.221831,540.4999

3.221831,541.0

3.221831,541.5

3.221831,542.0

3.221831,542.4999

3.222637,543.0

3.221831,543.5

3.222637,544.0

3.222637,544.4999

3.222637,545.0

3.222637,545.5

3.222637,546.0

3.222637,546.4999

3.189597,547.0

3.222637,547.5

3.222637,548.0

3.222637,548.4999

3.222637,549.0

3.224249,549.5

3.225055,550.0

3.224249,550.4999

3.222637,551.0

3.222637,551.5

3.223443,552.0

3.222637,552.4999

3.223443,553.0

3.224249,553.5

3.225055,554.0

3.224249,554.4999

3.224249,555.0

3.224249,555.5

3.225055,556.0

3.225055,556.4999

3.225861,557.0

3.225055,557.5

3.227473,558.0

3.225055,558.4999

3.225055,559.0

3.225861,559.5

3.225055,560.0

3.224249,560.4999

3.225861,561.0

3.225861,561.5

3.225861,562.0

3.225861,562.4999

3.226667,563.0

3.225861,563.5001

3.225861,564.0

3.226667,564.4999

3.225861,565.0

3.227473,565.5001

3.226667,566.0

3.227473,566.4999

3.226667,567.0

3.226667,567.5001

3.227473,568.0

3.226667,568.4999

3.227473,569.0

3.227473,569.5001

3.226667,570.0

3.227473,570.4999

3.227473,571.0

3.227473,571.5001

3.228278,572.0

3.227473,572.4999

3.228278,573.0

3.228278,573.5001

3.229084,574.0

3.228278,574.4999

3.228278,575.0

3.228278,575.5001

3.228278,576.0

3.228278,576.4999

3.229084,577.0

3.229084,577.5001

3.229084,578.0

3.229084,578.4999

3.228278,579.0

3.222637,579.5001

3.228278,580.0

3.229084,580.4999

3.229084,581.0

3.229084,581.5001

3.229084,582.0

3.229084,582.4999

3.229084,583.0

3.229084,583.5001

3.229084,584.0

3.22989,584.4999

3.228278,585.0

3.22989,585.5

3.231502,586.0

3.229084,586.4999

3.22989,587.0

3.230696,587.5

3.22989,588.0

3.22989,588.4999

3.231502,589.0

3.230696,589.5

3.230696,590.0

3.232308,590.4999

3.231502,591.0

3.230696,591.5

3.231502,592.0

3.231502,592.4999

3.22989,593.0

3.230696,593.5

3.231502,594.0

3.231502,594.4999

3.231502,595.0

3.231502,595.5

3.231502,596.0

3.232308,596.4999

3.231502,597.0

3.231502,597.5

3.232308,598.0

3.231502,598.4999

3.231502,599.0

3.232308,599.5

3.231502,600.0

3.232308,600.4999

3.233919,601.0

3.232308,601.5

3.233114,602.0

3.232308,602.4999

3.232308,603.0

3.233114,603.5

3.233114,604.0

3.233114,604.4999

3.233114,605.0

3.233114,605.5

3.232308,606.0

3.230696,606.4999

3.233114,607.0

3.232308,607.5

3.233919,608.0

3.233919,608.4999

3.233114,609.0

3.233114,609.5

3.233919,610.0

3.233114,610.4999

3.233919,611.0

3.233919,611.5

3.235531,612.0

3.233919,612.4999

3.233919,613.0

3.233919,613.5001

3.234725,614.0

3.233919,614.4999

3.234725,615.0

3.233919,615.5001

3.234725,616.0

3.234725,616.4999

3.234725,617.0

3.235531,617.5001

3.234725,618.0

3.235531,618.4999

3.235531,619.0

3.234725,619.5001

3.234725,620.0

3.235531,620.4999

3.235531,621.0

3.234725,621.5001

3.234725,622.0

3.248425,622.4999

3.235531,623.0

3.235531,623.5001

3.235531,624.0

3.235531,624.4999

3.235531,625.0

3.235531,625.5001

3.235531,626.0

3.235531,626.4999

3.235531,627.0

3.235531,627.5001

3.235531,628.0

3.235531,628.4999

3.235531,629.0

3.235531,629.5001

3.235531,630.0

3.235531,630.4999

3.235531,631.0

3.235531,631.5001

3.235531,632.0

3.235531,632.4999

3.235531,633.0

3.237949,633.5001

3.235531,634.0

3.235531,634.4999

3.235531,635.0

3.235531,635.5

3.235531,636.0

3.235531,636.4999

3.237949,637.0

3.235531,637.5

3.235531,638.0

3.240366,638.4999

3.235531,639.0

3.235531,639.5

3.235531,640.0

3.236337,640.4999

3.235531,641.0

3.237949,641.5

3.235531,642.0

3.237949,642.4999

3.235531,643.0

3.237143,643.5

3.237949,644.0

3.235531,644.4999

3.237949,645.0

3.235531,645.5

3.237949,646.0

3.235531,646.4999

3.237949,647.0

3.238755,647.5

3.237949,648.0

3.237949,648.4999

3.237949,649.0

3.237949,649.5

3.238755,650.0

3.238755,650.4999

3.235531,651.0

3.237949,651.5

3.238755,652.0

3.238755,652.4999

3.238755,653.0

3.237949,653.5

3.238755,654.0

3.233114,654.4999

3.238755,655.0

3.23956,655.5

3.23956,656.0

3.238755,656.4999

3.23956,657.0

3.238755,657.5

3.23956,658.0

3.238755,658.4999

3.238755,659.0

3.23956,659.5

3.23956,660.0

3.238755,660.4999

3.23956,661.0

3.23956,661.5

3.23956,662.0

3.238755,662.4999

3.23956,663.0

3.23956,663.5

3.23956,664.0

3.240366,664.4999

3.235531,665.0

3.240366,665.5001

3.23956,666.0

3.23956,666.4999

3.241172,667.0

3.23956,667.5001

3.240366,668.0

3.240366,668.4999

3.241172,669.0

3.23956,669.5001

3.241172,670.0

3.241978,670.4999

3.240366,671.0

3.240366,671.5001

3.241172,672.0

3.240366,672.4999

3.241172,673.0

3.241172,673.5001

3.240366,674.0

3.240366,674.4999

3.241172,675.0

3.241172,675.5001

3.241172,676.0

3.240366,676.4999

3.240366,677.0

3.240366,677.5001

3.241172,678.0

3.240366,678.4999

3.241172,679.0

3.241172,679.5001

3.241978,680.0

3.241172,680.4999

3.246007,681.0

3.241172,681.5001

3.241172,682.0

3.241172,682.4999

3.241978,683.0

3.241172,683.5001

3.241172,684.0

3.241172,684.4999

3.241978,685.0

3.241172,685.5

3.241978,686.0

3.241978,686.4999

3.241978,687.0

3.241172,687.5

3.241978,688.0

3.241978,688.4999

3.241978,689.0

3.241978,689.5

3.241172,690.0

3.241978,690.4999

3.241978,691.0

3.241978,691.5

3.241978,692.0

3.241978,692.4999

3.241978,693.0

3.241172,693.5

3.242784,694.0

3.241172,694.4999

3.242784,695.0

3.242784,695.5

3.242784,696.0

3.242784,696.4999

3.244395,697.0

3.241978,697.5

3.241978,698.0

3.241978,698.4999

3.24359,699.0

3.241978,699.5

3.242784,700.0

3.242784,700.4999

3.24359,701.0

3.242784,701.5

3.24359,702.0

3.241978,702.4999

3.242784,703.0

3.242784,703.5

3.242784,704.0

3.242784,704.4999

3.24359,705.0

3.242784,705.5

3.24359,706.0

3.242784,706.4999

3.242784,707.0

3.246007,707.5

3.24359,708.0

3.242784,708.4999

3.244395,709.0

3.241978,709.5

3.24359,710.0

3.242784,710.4999

3.24359,711.0

3.24359,711.5

3.244395,712.0

3.24359,712.4999

3.24359,713.0

3.24359,713.5

3.24359,714.0

3.24359,714.4999

3.244395,715.0

3.24359,715.5001

3.244395,716.0

3.24359,716.4999

3.244395,717.0

3.245201,717.5001

3.244395,718.0

3.244395,718.4999

3.244395,719.0

3.245201,719.5001

3.244395,720.0

3.244395,720.4999

3.242784,721.0

3.24359,721.5001

3.244395,722.0

3.244395,722.4999

3.245201,723.0

3.24359,723.5001

3.245201,724.0

3.244395,724.4999

3.244395,725.0

3.245201,725.5001

3.245201,726.0

3.24359,726.4999

3.245201,727.0

3.244395,727.5001

3.244395,728.0

3.244395,728.4999

3.244395,729.0

3.244395,729.5001

3.245201,730.0

3.244395,730.4999

3.246007,731.0

3.245201,731.5001

3.245201,732.0

3.245201,732.4999

3.245201,733.0

3.244395,733.5001

3.245201,734.0

3.244395,734.4999

3.246007,735.0

3.245201,735.5

3.245201,736.0

3.245201,736.4999

3.245201,737.0

3.245201,737.5

3.245201,738.0

3.245201,738.4999

3.245201,739.0

3.250036,739.5

3.245201,740.0

3.245201,740.4999

3.245201,741.0

3.245201,741.5

3.246007,742.0

3.245201,742.4999

3.245201,743.0

3.245201,743.5

3.245201,744.0

3.245201,744.4999

3.246007,745.0

3.245201,745.5

3.245201,746.0

3.245201,746.4999

3.246007,747.0

3.245201,747.5

3.246007,748.0

3.245201,748.4999

3.245201,749.0

3.245201,749.5

3.250036,750.0

3.246007,750.4999

3.246813,751.0

3.246813,751.5

3.245201,752.0

3.245201,752.4999

3.246007,753.0

3.246813,753.5

3.246007,754.0

3.246007,754.4999

3.245201,755.0

3.244395,755.5

3.246813,756.0

3.246007,756.4999

3.247619,757.0

3.246007,757.5

3.246813,758.0

3.246007,758.4999

3.246813,759.0

3.245201,759.5

3.246813,760.0

3.246007,760.4999

3.247619,761.0

3.246007,761.5

3.246007,762.0

3.246007,762.4999

3.246813,763.0

3.246813,763.5

3.246007,764.0

3.246813,764.4999

3.246813,765.0

3.246813,765.5

3.257289,766.0

3.246007,766.4999

3.246813,767.0

3.246813,767.5001

3.246813,768.0

3.246813,768.4999

3.247619,769.0

3.246813,769.5001

3.248425,770.0

3.246813,770.4999

3.247619,771.0

3.246813,771.5001

3.246813,772.0

3.246007,772.4999

3.246813,773.0

3.246813,773.5001

3.247619,774.0

3.246813,774.4999

3.247619,775.0

3.246813,775.5001

3.247619,776.0

3.246813,776.4999

3.247619,777.0

3.247619,777.5001

3.247619,778.0

3.246813,778.4999

3.247619,779.0

3.245201,779.5001

3.248425,780.0

3.247619,780.4999

3.248425,781.0

3.246813,781.5001

3.248425,782.0

3.246813,782.4999

3.247619,783.0

3.246813,783.5001

3.247619,784.0

3.247619,784.4999

3.247619,785.0

3.248425,785.5

3.248425,786.0

3.248425,786.4999

3.248425,787.0

3.248425,787.5

3.247619,788.0

3.248425,788.4999

3.247619,789.0

3.247619,789.5

3.248425,790.0

3.247619,790.4999

3.247619,791.0

3.248425,791.5

3.247619,792.0

3.246007,792.4999

3.247619,793.0

3.248425,793.5

3.247619,794.0

3.247619,794.4999

3.248425,795.0

3.248425,795.5

3.248425,796.0

3.248425,796.4999

3.248425,797.0

3.248425,797.5

3.248425,798.0

3.248425,798.4999

3.248425,799.0

3.248425,799.5

3.248425,800.0

3.248425,800.4999

3.248425,801.0

3.248425,801.5

3.248425,802.0

3.248425,802.5

3.248425,803.0

3.248425,803.5001

3.248425,804.0

3.248425,804.4999

3.248425,805.0

3.248425,805.5

3.246813,805.9999

3.247619,806.5

3.248425,807.0

3.248425,807.5001

3.248425,808.0

3.248425,808.4999

3.248425,809.0

3.248425,809.5

3.248425,809.9999

3.248425,810.5

3.248425,811.0

3.248425,811.5001

3.248425,812.0

3.248425,812.4999

3.248425,813.0

3.248425,813.5

3.248425,813.9999

3.248425,814.5

3.248425,815.0

3.248425,815.5001

3.248425,816.0

3.248425,816.4999

3.248425,817.0

3.248425,817.5

3.248425,817.9999

3.248425,818.4999

3.248425,819.0

3.248425,819.5001

3.248425,820.0

3.248425,820.4999

3.248425,821.0

3.248425,821.5

3.249231,822.0

3.248425,822.4999

3.248425,823.0

3.250036,823.5001

3.248425,824.0

3.248425,824.4999

3.248425,825.0

3.248425,825.5

3.248425,826.0

3.248425,826.4999

3.248425,827.0

3.248425,827.5001

3.248425,828.0

3.248425,828.4999

3.248425,829.0

3.249231,829.5

3.248425,830.0

3.248425,830.4999

3.248425,830.9999

3.248425,831.5001

3.248425,832.0

3.244395,832.4999

3.249231,833.0

3.248425,833.5

3.250036,834.0

3.250036,834.4999

3.252454,834.9999

3.248425,835.5

3.248425,836.0

3.248425,836.4999

3.248425,837.0

3.248425,837.5

3.248425,838.0

3.248425,838.4999

3.248425,838.9999

3.248425,839.5

3.248425,840.0

3.248425,840.4999

3.250036,841.0

3.248425,841.5

3.249231,842.0

3.248425,842.4999

3.248425,842.9999

3.248425,843.5

3.250036,844.0

3.248425,844.4999

3.248425,845.0

3.247619,845.5001

3.250036,846.0

3.250036,846.4999

3.248425,847.0

3.248425,847.5

3.250036,848.0

3.250843,848.5

3.250036,849.0

3.249231,849.5001

3.248425,850.0

3.248425,850.4999

3.251648,851.0

3.250036,851.5

3.250036,852.0

3.248425,852.5

3.250036,853.0

3.250036,853.5001

3.250036,854.0

3.248425,854.4999

3.250036,855.0

3.248425,855.5

3.250843,855.9999

3.249231,856.5

3.249231,857.0

3.248425,857.5001

3.248425,858.0

3.248425,858.4999

3.245201,859.0

3.248425,859.5

3.250843,859.9999

3.250843,860.5

3.250843,861.0

3.251648,861.5001

3.249231,862.0

3.248425,862.4999

3.250036,863.0

3.250036,863.5

3.250843,863.9999

3.250036,864.5

3.250843,865.0

3.248425,865.5001

3.250036,866.0

3.250036,866.4999

3.251648,867.0

3.250843,867.5

3.250843,867.9999

3.250036,868.4999

3.250843,869.0

3.249231,869.5001

3.250843,870.0

3.250036,870.4999

3.250843,871.0

3.250036,871.5

3.250036,872.0

3.250036,872.4999

3.250843,873.0

3.250036,873.5001

3.251648,874.0

3.250843,874.4999

3.250843,875.0

3.250843,875.5

3.250036,876.0

3.250843,876.4999

3.250843,877.0

3.251648,877.5001

3.250843,878.0

3.250843,878.4999

3.250843,879.0

3.250843,879.5

3.250843,880.0

3.251648,880.4999

3.251648,880.9999

3.251648,881.5001

3.250843,882.0

3.250036,882.4999

3.250843,883.0

3.251648,883.5

3.250843,884.0

3.250843,884.4999

3.250843,884.9999

3.250036,885.5

3.250843,886.0

3.250036,886.4999

3.250843,887.0

3.250843,887.5

3.250843,888.0

3.250036,888.4999

3.250036,888.9999

3.250843,889.5

3.251648,890.0

3.250843,890.4999

3.250843,891.0

3.250843,891.5

3.250843,892.0

3.250843,892.4999

3.251648,892.9999

3.250036,893.5

3.250843,894.0

3.250843,894.4999

3.251648,895.0

3.251648,895.5001

3.251648,896.0

3.250843,896.4999

3.251648,897.0

3.251648,897.5

3.251648,898.0

3.251648,898.5

3.251648,899.0

3.250036,899.5001

3.250843,900.0

3.250843,900.4999

3.251648,901.0

3.251648,901.5

3.251648,902.0

3.251648,902.5

3.250843,903.0

3.250843,903.5001

3.251648,904.0

3.250843,904.4999

3.250843,905.0

3.251648,905.5

3.251648,905.9999

3.250843,906.5

3.251648,907.0

3.251648,907.5001

3.251648,908.0

3.250843,908.4999

3.251648,909.0

3.251648,909.5

3.250843,909.9999

3.250843,910.5

3.251648,911.0

3.250843,911.5001

3.251648,912.0

3.250843,912.4999

3.251648,913.0

3.251648,913.5

3.251648,913.9999

3.250843,914.5

3.251648,915.0

3.250843,915.5001

3.251648,916.0

3.250843,916.4999

3.251648,917.0

3.251648,917.5

3.251648,917.9999

3.251648,918.4999

3.251648,919.0

3.251648,919.5001

3.251648,920.0

3.251648,920.4999

3.251648,921.0

3.251648,921.5

3.251648,922.0

3.251648,922.4999

3.251648,923.0

3.251648,923.5001

3.250843,924.0

3.251648,924.4999

3.251648,925.0

3.251648,925.5

3.251648,926.0

3.250843,926.4999

3.251648,927.0

3.251648,927.5001

3.251648,928.0

3.251648,928.4999

3.251648,929.0

3.251648,929.5

3.25326,930.0

3.251648,930.4999

3.251648,930.9999

3.252454,931.5001

3.251648,932.0

3.251648,932.4999

3.251648,933.0

3.251648,933.5

3.251648,934.0

3.251648,934.4999

3.251648,934.9999

3.251648,935.5

3.251648,936.0

3.251648,936.4999

3.251648,937.0

3.251648,937.5

3.252454,938.0

3.251648,938.4999

3.252454,938.9999

3.251648,939.5

3.251648,940.0

3.251648,940.4999

3.251648,941.0

3.252454,941.5

3.251648,942.0

3.251648,942.4999

3.252454,942.9999

3.251648,943.5

3.251648,944.0

3.251648,944.4999

3.252454,945.0

3.251648,945.5

3.252454,946.0

3.251648,946.4999

3.251648,946.9999

3.251648,947.5

3.251648,948.0

3.251648,948.4999

3.251648,949.0

3.251648,949.5001

3.251648,950.0

3.252454,950.4999

3.251648,951.0

3.251648,951.5

3.252454,952.0

3.251648,952.5

3.252454,953.0

3.251648,953.5001

3.251648,954.0

3.251648,954.4999

3.252454,955.0

3.251648,955.5

3.251648,955.9999

3.250843,956.5

3.252454,957.0

3.251648,957.5001

3.252454,958.0

3.251648,958.4999

3.251648,959.0

3.251648,959.5

3.252454,959.9999

3.252454,960.5

3.252454,961.0

3.251648,961.5001

3.251648,962.0

3.251648,962.4999

3.252454,963.0

3.252454,963.5

3.252454,963.9999

3.251648,964.5

3.252454,965.0

3.251648,965.5001

3.252454,966.0

3.251648,966.4999

3.251648,967.0

3.252454,967.5

3.252454,967.9999

3.251648,968.4999

3.252454,969.0

3.250843,969.5001

3.25326,970.0

3.254872,970.4999

3.25326,971.0

3.251648,971.5

3.25326,971.9999

3.25326,972.4999

3.252454,973.0

3.252454,973.5001

3.251648,974.0

3.25326,974.4999

3.252454,975.0

3.252454,975.5

3.251648,976.0

3.25326,976.4999

3.251648,977.0

3.252454,977.5001

3.252454,978.0

3.252454,978.4999

3.251648,979.0

3.25326,979.5

3.251648,980.0

3.251648,980.4999

3.252454,980.9999

3.25326,981.5001

3.252454,982.0

3.252454,982.4999

3.252454,983.0

3.252454,983.5

3.251648,984.0

3.252454,984.4999

3.25326,984.9999

3.25326,985.5

3.251648,986.0

3.252454,986.4999

3.25326,987.0

3.25326,987.5

3.250843,988.0

3.25326,988.4999

3.252454,988.9999

3.252454,989.5

3.251648,990.0

3.252454,990.4999

3.25326,991.0

3.252454,991.5

3.252454,992.0

3.252454,992.4999

3.251648,992.9999

3.252454,993.5

3.252454,994.0

3.252454,994.4999

3.25326,995.0

3.252454,995.5

3.25326,996.0

3.251648,996.4999

3.251648,996.9999

3.251648,997.5

3.252454,998.0

3.251648,998.4999

3.251648,999.0

3.25326,999.5001

3.25326,1000.0

3.25326,1000.5

3.252454,1001.0

3.25326,1001.5

3.252454,1002.0

3.252454,1002.5

3.251648,1003.0

3.252454,1003.5

3.252454,1004.0

3.252454,1004.5

3.251648,1005.0

3.25326,1005.5

3.252454,1006.0

3.252454,1006.5

3.251648,1007.0

3.25326,1007.5

3.252454,1008.0

3.252454,1008.5

3.251648,1009.0

3.25326,1009.5

3.25326,1010.0

3.25326,1010.5

3.25326,1011.0

3.252454,1011.5

3.252454,1012.0

3.252454,1012.5

3.251648,1013.0

3.252454,1013.5

3.252454,1014.0

3.25326,1014.5

3.25326,1015.0

3.25326,1015.5

3.252454,1016.0

3.252454,1016.5

3.251648,1017.0

3.252454,1017.5

3.252454,1018.0

3.252454,1018.5

3.252454,1019.0

3.250843,1019.5

3.252454,1020.0

3.25326,1020.5

3.25326,1021.0

3.25326,1021.5

3.25326,1022.0

3.25326,1022.5

3.252454,1023.0

3.252454,1023.5

3.252454,1024.0

3.252454,1024.5

3.252454,1025.0

3.25326,1025.5

3.25326,1026.0

3.254066,1026.5

3.252454,1027.0

3.254066,1027.5

3.25326,1028.0

3.254066,1028.5

3.25326,1029.0

3.25326,1029.5

3.247619,1030.0

3.254066,1030.5

3.25326,1031.0

3.254066,1031.5

3.25326,1032.0

3.252454,1032.5

3.251648,1033.0

3.252454,1033.5

3.252454,1034.0

3.254066,1034.5

3.25326,1035.0

3.25326,1035.5

3.25326,1036.0

3.25326,1036.5

3.251648,1037.0

3.254066,1037.5

3.25326,1038.0

3.254066,1038.5

3.25326,1039.0

3.252454,1039.5

3.252454,1040.0

3.25326,1040.5

3.252454,1041.0

3.25326,1041.5

3.252454,1042.0

3.25326,1042.5

3.252454,1043.0

3.25326,1043.5

3.25326,1044.0

3.254066,1044.5

3.25326,1045.0

3.25326,1045.5

3.252454,1046.0

3.254066,1046.5

3.25326,1047.0

3.25326,1047.5

3.252454,1048.0

3.25326,1048.5

3.251648,1049.0

3.25326,1049.5

3.25326,1050.0

3.25326,1050.5

3.252454,1051.0

3.254066,1051.5

3.25326,1052.0

3.254066,1052.5

3.25326,1053.0

3.25326,1053.5

3.25326,1054.0

3.252454,1054.5

3.25326,1055.0

3.254066,1055.5

3.254066,1056.0

3.25326,1056.5

3.25326,1057.0

3.254066,1057.5

3.254066,1058.0

3.25326,1058.5

3.252454,1059.0

3.25326,1059.5

3.252454,1060.0

3.25326,1060.5

3.252454,1061.0

3.254066,1061.5

3.251648,1062.0

3.25326,1062.5

3.25326,1063.0

3.25326,1063.5

3.251648,1064.0

3.254066,1064.5

3.25326,1065.0

3.25326,1065.5

3.254066,1066.0

3.25326,1066.5

3.254066,1067.0

3.25326,1067.5

3.25326,1068.0

3.254066,1068.5

3.25326,1069.0

3.25326,1069.5

3.25326,1070.0

3.254066,1070.5

3.25326,1071.0

3.254066,1071.5

3.254872,1072.0

3.254872,1072.5

3.25326,1073.0

3.254066,1073.5

3.25326,1074.0

3.254066,1074.5

3.254066,1075.0

3.254872,1075.5

3.25326,1076.0

3.25326,1076.5

3.25326,1077.0

3.254066,1077.5

3.254066,1078.0

3.254066,1078.5

3.254066,1079.0

3.25326,1079.5

3.25326,1080.0

3.254066,1080.5

3.25326,1081.0

3.254066,1081.5

3.25326,1082.0

3.254066,1082.5

3.254066,1083.0

3.254066,1083.5

3.252454,1084.0

3.252454,1084.5

3.25326,1085.0

3.254066,1085.5

3.254872,1086.0

3.254066,1086.5

3.25326,1087.0

3.252454,1087.5

3.254066,1088.0

3.25326,1088.5

3.25326,1089.0

3.254066,1089.5

3.25326,1090.0

3.254066,1090.5

3.25326,1091.0

3.254066,1091.5

3.254066,1092.0

3.254066,1092.5

3.252454,1093.0

3.254066,1093.5

3.25326,1094.0

3.254066,1094.5

3.254066,1095.0

3.254066,1095.5

3.254066,1096.0

3.254066,1096.5

3.254066,1097.0

3.254872,1097.5

3.248425,1098.0

3.254066,1098.5

3.25326,1099.0

3.25326,1099.5

3.252454,1100.0

3.254872,1100.5

3.25326,1101.0

3.254066,1101.5

3.25326,1102.0

3.254066,1102.5

3.254066,1103.0

3.254066,1103.5

3.25326,1104.0

3.254066,1104.5

3.25326,1105.0

3.254066,1105.5

3.254066,1106.0

3.254066,1106.5

3.254066,1107.0

3.254066,1107.5

3.25326,1108.0

3.264542,1108.5

3.25326,1109.0

3.254872,1109.5

3.25326,1110.0

3.254066,1110.5

3.254066,1111.0

3.254066,1111.5

3.25326,1112.0

3.254066,1112.5

3.254066,1113.0

3.254066,1113.5

3.25326,1114.0

3.254066,1114.5

3.25326,1115.0

3.254066,1115.5

3.254066,1116.0

3.254066,1116.5

3.254066,1117.0

3.254872,1117.5

3.254066,1118.0

3.254066,1118.5

3.245201,1119.0

3.254066,1119.5

3.25326,1120.0

3.254066,1120.5

3.254066,1121.0

3.254066,1121.5

3.254066,1122.0

3.254066,1122.5

3.254066,1123.0

3.25326,1123.5

3.25326,1124.0

3.254066,1124.5

3.254066,1125.0

3.254066,1125.5

3.255678,1126.0

3.254872,1126.5

3.254066,1127.0

3.254066,1127.5

3.254066,1128.0

3.254066,1128.5

3.254872,1129.0

3.248425,1129.5

3.254066,1130.0

3.254066,1130.5

3.25326,1131.0

3.254066,1131.5

3.25326,1132.0

3.254872,1132.5

3.254872,1133.0

3.254066,1133.5

3.254066,1134.0

3.254066,1134.5

3.25326,1135.0

3.254872,1135.5

3.254872,1136.0

3.254066,1136.5

3.254066,1137.0

3.254066,1137.5

3.254872,1138.0

3.254066,1138.5

3.254066,1139.0

3.254872,1139.5

3.26696,1140.0

3.254066,1140.5

3.25326,1141.0

3.254066,1141.5

3.25326,1142.0

3.254872,1142.5

3.254066,1143.0

3.254872,1143.5

3.254066,1144.0

3.254872,1144.5

3.25326,1145.0

3.254066,1145.5

3.25326,1146.0

3.254066,1146.5

3.254066,1147.0

3.254066,1147.5

3.25326,1148.0

3.254066,1148.5

3.25326,1149.0

3.254066,1149.5

3.25326,1150.0

3.254872,1150.5

3.254066,1151.0

3.254872,1151.5

3.25326,1152.0

3.254066,1152.5

3.254066,1153.0

3.254872,1153.5

3.254872,1154.0

3.254066,1154.5

3.25326,1155.0

3.254066,1155.5

3.254066,1156.0

3.254066,1156.5

3.254872,1157.0

3.254066,1157.5

3.254066,1158.0

3.254066,1158.5

3.254872,1159.0

3.254872,1159.5

3.254872,1160.0

3.254066,1160.5

3.261319,1161.0

3.254066,1161.5

3.254872,1162.0

3.254872,1162.5

3.254066,1163.0

3.254872,1163.5

3.254066,1164.0

3.254066,1164.5

3.25326,1165.0

3.254872,1165.5

3.254066,1166.0

3.254066,1166.5

3.254872,1167.0

3.254066,1167.5

3.254066,1168.0

3.254066,1168.5

3.254872,1169.0

3.254066,1169.5

3.254872,1170.0

3.254066,1170.5

3.254872,1171.0

3.252454,1171.5

3.254066,1172.0

3.254872,1172.5

3.254872,1173.0

3.254872,1173.5

3.254066,1174.0

3.254872,1174.5

3.254066,1175.0

3.254066,1175.5

3.254066,1176.0

3.254872,1176.5

3.254066,1177.0

3.254872,1177.5

3.254066,1178.0

3.254872,1178.5

3.254066,1179.0

3.254872,1179.5

3.254066,1180.0

3.254066,1180.5

3.254066,1181.0

3.254066,1181.5

3.256484,1182.0

3.254872,1182.5

3.254066,1183.0

3.254872,1183.5

3.254872,1184.0

3.254066,1184.5

3.254066,1185.0

3.254066,1185.5

3.254066,1186.0

3.254872,1186.5

3.254066,1187.0

3.254066,1187.5

3.254066,1188.0

3.254872,1188.5

3.254066,1189.0

3.254066,1189.5

3.254872,1190.0

3.254872,1190.5

3.254066,1191.0

3.254066,1191.5

3.254872,1192.0

3.241172,1192.5

3.254066,1193.0

3.254872,1193.5

3.254066,1194.0

3.254066,1194.5

3.254066,1195.0

3.254066,1195.5

3.254872,1196.0

3.254872,1196.5

3.254872,1197.0

3.254872,1197.5

3.254066,1198.0

3.254872,1198.5

3.254872,1199.0

3.254066,1199.5

3.254066,1200.0

3.254066,1200.5

3.254066,1201.0

3.254066,1201.5

3.254066,1202.0

3.254066,1202.5

3.254872,1203.0

3.254872,1203.5

3.254066,1204.0

3.254872,1204.5

3.254066,1205.0

3.254066,1205.5

3.254066,1206.0

3.254066,1206.5

3.254066,1207.0

3.254066,1207.5

3.25326,1208.0

3.254066,1208.5

3.254066,1209.0

3.254066,1209.5

3.254066,1210.0

3.254872,1210.5

3.254066,1211.0

3.254066,1211.5

3.25326,1212.0

3.254872,1212.5

3.254066,1213.0

3.254872,1213.5

3.254066,1214.0

3.254066,1214.5

3.254066,1215.0

3.254872,1215.5

3.254872,1216.0

3.254872,1216.5

3.254872,1217.0

3.254066,1217.5

3.254066,1218.0

3.248425,1218.5

3.254066,1219.0

3.254872,1219.5

3.254066,1220.0

3.254872,1220.5

3.25326,1221.0

3.254066,1221.5

3.254066,1222.0

3.254872,1222.5

3.254066,1223.0

3.254066,1223.5

3.254066,1224.0

3.254066,1224.5

3.25326,1225.0

3.254872,1225.5

3.254066,1226.0

3.256484,1226.5

3.254066,1227.0

3.254066,1227.5

3.254066,1228.0

3.254872,1228.5

3.256484,1229.0

3.255678,1229.5

3.25326,1230.0

3.254872,1230.5

3.254872,1231.0

3.254872,1231.5

3.254066,1232.0

3.254872,1232.5

3.254872,1233.0

3.254872,1233.5

3.25326,1234.0

3.254066,1234.5

3.254066,1235.0

3.254066,1235.5

3.254066,1236.0

3.254872,1236.5

3.254872,1237.0

3.254872,1237.5

3.254872,1238.0

3.254066,1238.5

3.254066,1239.0

3.254872,1239.5

3.254872,1240.0

3.254872,1240.5

3.254872,1241.0

3.254872,1241.5

3.254066,1242.0

3.254066,1242.5

3.254066,1243.0

3.254066,1243.5

3.254872,1244.0

3.250843,1244.5

3.254066,1245.0

3.254066,1245.5

3.254066,1246.0

3.254872,1246.5

3.254872,1247.0

3.254872,1247.5

3.254872,1248.0

3.254872,1248.5

3.254066,1249.0

3.254872,1249.5

3.254066,1250.0

3.254872,1250.5

3.254066,1251.0

3.254872,1251.5

3.254066,1252.0

3.254872,1252.5

3.254872,1253.0

3.254872,1253.5

3.254066,1254.0

3.254872,1254.5

3.256484,1255.0

3.254872,1255.5

3.254872,1256.0

3.254872,1256.5

3.254066,1257.0

3.254872,1257.5

3.254872,1258.0

3.254872,1258.5

3.254872,1259.0

3.254066,1259.5

3.254872,1260.0

3.254872,1260.5

3.254066,1261.0

3.254066,1261.5

3.254066,1262.0

3.254872,1262.5

3.254066,1263.0

3.254872,1263.5

3.254066,1264.0

3.254872,1264.5

3.254872,1265.0

3.254872,1265.5

3.254066,1266.0

3.254066,1266.5

3.254872,1267.0

3.254872,1267.5

3.254066,1268.0

3.254872,1268.5

3.254066,1269.0

3.254872,1269.5

3.254066,1270.0

3.248425,1270.5

3.254872,1271.0

3.254872,1271.5

3.254066,1272.0

3.254066,1272.5

3.254066,1273.0

3.254872,1273.5

3.254066,1274.0

3.254066,1274.5

3.254066,1275.0

3.255678,1275.5

3.254872,1276.0

3.254872,1276.5

3.254872,1277.0

3.254872,1277.5

3.254066,1278.0

3.254872,1278.5

3.254872,1279.0

3.254872,1279.5

3.254872,1280.0

3.254066,1280.5

3.25326,1281.0

3.254872,1281.5

3.254872,1282.0

3.254066,1282.5

3.254872,1283.0

3.254872,1283.5

3.254066,1284.0

3.254066,1284.5

3.254872,1285.0

3.254872,1285.5

3.254066,1286.0

3.254872,1286.5

3.254872,1287.0

3.254872,1287.5

3.254872,1288.0

3.254872,1288.5

3.254066,1289.0

3.254066,1289.5

3.255678,1290.0

3.255678,1290.5

3.254066,1291.0

3.254066,1291.5

3.254872,1292.0

3.254066,1292.5

3.254872,1293.0

3.25326,1293.5

3.254066,1294.0

3.254872,1294.5

3.254872,1295.0

3.254066,1295.5

3.254066,1296.0

3.255678,1296.5

3.254872,1297.0

3.254872,1297.5

3.254872,1298.0

3.254872,1298.5

3.254872,1299.0

3.254872,1299.5

3.254872,1300.0

3.254872,1300.5

3.254872,1301.0

3.254872,1301.5

3.255678,1302.0

3.254066,1302.5

3.254872,1303.0

3.254066,1303.5

3.254872,1304.0

3.254066,1304.5

3.254066,1305.0

3.254066,1305.5

3.254066,1306.0

3.254872,1306.5

3.254872,1307.0

3.254872,1307.5

3.254066,1308.0

3.254066,1308.5

3.254872,1309.0

3.254872,1309.5

3.254872,1310.0

3.25326,1310.5

3.254872,1311.0

3.254066,1311.5

3.254872,1312.0

3.254872,1312.5

3.254872,1313.0

3.254872,1313.5

3.254872,1314.0

3.254872,1314.5

3.254872,1315.0

3.254872,1315.5

3.254872,1316.0

3.254066,1316.5

3.254872,1317.0

3.256484,1317.5

3.254872,1318.0

3.254872,1318.5

3.254872,1319.0

3.254872,1319.5

3.254872,1320.0

3.254872,1320.5

3.254872,1321.0

3.254872,1321.5

3.254872,1322.0

3.251648,1322.5

3.254872,1323.0

3.254872,1323.5

3.254872,1324.0

3.254872,1324.5

3.254872,1325.0

3.254872,1325.5

3.254066,1326.0

3.254872,1326.5

3.255678,1327.0

3.255678,1327.5

3.254872,1328.0

3.254872,1328.5

3.254872,1329.0

3.254872,1329.5

3.254872,1330.0

3.254872,1330.5

3.254872,1331.0

3.254872,1331.5

3.254872,1332.0

3.254872,1332.5

3.25326,1333.0

3.254872,1333.5

3.254872,1334.0

3.254066,1334.5

3.254872,1335.0

3.254872,1335.5

3.254872,1336.0

3.254872,1336.5

3.254872,1337.0

3.255678,1337.5

3.254872,1338.0

3.254872,1338.5

3.254872,1339.0

3.254872,1339.5

3.254872,1340.0

3.254872,1340.5

3.255678,1341.0

3.254872,1341.5

3.254872,1342.0

3.254872,1342.5

3.254872,1343.0

3.254872,1343.5

3.255678,1344.0

3.254872,1344.5

3.254872,1345.0

3.254872,1345.5

3.254872,1346.0

3.254872,1346.5

3.254872,1347.0

3.255678,1347.5

3.254872,1348.0

3.25326,1348.5

3.255678,1349.0

3.254872,1349.5

3.254872,1350.0

3.254872,1350.5

3.254872,1351.0

3.254872,1351.5

3.254872,1352.0

3.254872,1352.5

3.255678,1353.0

3.254872,1353.5

3.254872,1354.0

3.25326,1354.5

3.254872,1355.0

3.254872,1355.5

3.254872,1356.0

3.264542,1356.5

3.254872,1357.0

3.254872,1357.5

3.254872,1358.0

3.255678,1358.5

3.257289,1359.0

3.254872,1359.5

3.254872,1360.0

3.254872,1360.5

3.255678,1361.0

3.254872,1361.5

3.254872,1362.0

3.254872,1362.5

3.254872,1363.0

3.254872,1363.5

3.254066,1364.0

3.254066,1364.5

3.254872,1365.0

3.255678,1365.5

3.254872,1366.0

3.254872,1366.5

3.254872,1367.0

3.254066,1367.5

3.254872,1368.0

3.254066,1368.5

3.254872,1369.0

3.254872,1369.5

3.254872,1370.0

3.254872,1370.5

3.254872,1371.0

3.254872,1371.5

3.254872,1372.0

3.254872,1372.5

3.254872,1373.0

3.254872,1373.5

3.254872,1374.0

3.241172,1374.5

3.254872,1375.0

3.254872,1375.5

3.254872,1376.0

3.254872,1376.5

3.254872,1377.0

3.254872,1377.5

3.254872,1378.0

3.254872,1378.5

3.254066,1379.0

3.254872,1379.5

3.255678,1380.0

3.254872,1380.5

3.254872,1381.0

3.254066,1381.5

3.254872,1382.0

3.254872,1382.5

3.254872,1383.0

3.254872,1383.5

3.254872,1384.0

3.254872,1384.5

3.254872,1385.0

3.254872,1385.5

3.254872,1386.0

3.254872,1386.5

3.254872,1387.0

3.254872,1387.5

3.254872,1388.0

3.254872,1388.5

3.254872,1389.0

3.254066,1389.5

3.251648,1390.0

3.254872,1390.5

3.254872,1391.0

3.254872,1391.5

3.254872,1392.0

3.254872,1392.5

3.254872,1393.0

3.254872,1393.5

3.254872,1394.0

3.254872,1394.5

3.254872,1395.0

3.254872,1395.5

3.254872,1396.0

3.254872,1396.5

3.254872,1397.0

3.254872,1397.5

3.254872,1398.0

3.254872,1398.5

3.254872,1399.0

3.254872,1399.5

3.254872,1400.0

3.254066,1400.5

3.254872,1401.0

3.254872,1401.5

3.255678,1402.0

3.254872,1402.5

3.254872,1403.0

3.254872,1403.5

3.254872,1404.0

3.254872,1404.5

3.254872,1405.0

3.254872,1405.5

3.254872,1406.0

3.254066,1406.5

3.254872,1407.0

3.254872,1407.5

3.254872,1408.0

3.254872,1408.5

3.254872,1409.0

3.254872,1409.5

3.254872,1410.0

3.254872,1410.5

3.254872,1411.0

3.254872,1411.5

3.254872,1412.0

3.254872,1412.5

3.254872,1413.0

3.254872,1413.5

3.254872,1414.0

3.254872,1414.5

3.254872,1415.0

3.254872,1415.5

3.241978,1416.0

3.254066,1416.5

3.254872,1417.0

3.254872,1417.5

3.254872,1418.0

3.254872,1418.5

3.254872,1419.0

3.254066,1419.5

3.254872,1420.0

3.254872,1420.5

3.254872,1421.0

3.254872,1421.5

3.254872,1422.0

3.254872,1422.5

3.254872,1423.0

3.254872,1423.5

3.254872,1424.0

3.254872,1424.5

3.254872,1425.0

3.254872,1425.5

3.254872,1426.0

3.255678,1426.5

3.254872,1427.0

3.254872,1427.5

